[gd_scene load_steps=4 format=1]

[ext_resource path="res://scripts/ground.gd" type="Script" id=1]
[ext_resource path="res://sprites/ground.png" type="Texture" id=2]

[sub_resource type="RectangleShape2D" id=1]

custom_solver_bias = 0.0
extents = Vector2( 84, 28 )

[node name="ground" type="StaticBody2D"]

transform/pos = Vector2( 0, 256 )
input/pickable = false
shapes/0/shape = SubResource( 1 )
shapes/0/transform = Matrix32( 1, 0, 0, 1, 84, -28 )
shapes/0/trigger = false
collision/layers = 1
collision/mask = 1
constant_linear_velocity = Vector2( 0, 0 )
constant_angular_velocity = 0.0
friction = 1.0
bounce = 0.0
script/script = ExtResource( 1 )

[node name="sprite" type="Sprite" parent="."]

transform/pos = Vector2( 0, -56 )
texture = ExtResource( 2 )
centered = false

[node name="CollisionShape2D" type="CollisionShape2D" parent="."]

transform/pos = Vector2( 84, -28 )
shape = SubResource( 1 )
trigger = false
_update_shape_index = 0

[node name="bottom_right" type="Position2D" parent="."]

transform/pos = Vector2( 168, 0 )


