[gd_scene load_steps=5 format=1]

[ext_resource path="res://scripts/icicle.gd" type="Script" id=1]
[ext_resource path="res://sprites/icicle.png" type="Texture" id=2]
[ext_resource path="res://scenes/heart.tscn" type="PackedScene" id=3]

[sub_resource type="RectangleShape2D" id=1]

custom_solver_bias = 0.0
extents = Vector2( 8, 45 )

[node name="icicle" type="StaticBody2D"]

input/pickable = false
shapes/0/shape = SubResource( 1 )
shapes/0/transform = Matrix32( 1, 0, 0, 1, 0, 155 )
shapes/0/trigger = false
collision/layers = 1
collision/mask = 1
constant_linear_velocity = Vector2( 0, 0 )
constant_angular_velocity = 0.0
friction = 1.0
bounce = 0.0
script/script = ExtResource( 1 )

[node name="sprite_left" type="Sprite" parent="."]

transform/pos = Vector2( 0, 155 )
texture = ExtResource( 2 )

[node name="shape_left" type="CollisionShape2D" parent="."]

transform/pos = Vector2( 0, 155 )
shape = SubResource( 1 )
trigger = false
_update_shape_index = 0

[node name="right" type="Position2D" parent="."]

transform/pos = Vector2( 108, 0 )

[node name="heart" parent="." instance=ExtResource( 3 )]

transform/pos = Vector2( 64, 150 )


